{
    "metadata": [
        {
            "priority": "high"
        },
        {
            "confidence": "high"
        },
        {
            "tags": ""
        },
        {
            "threats": "T1140 Deobfuscate/Decode Files or Information"
        },
        {
            "sandbox_restricted": "false"
        },
        {
            "threat_type": "Attack Pattern"
        },
        {
            "rule_version": "v1"
        },
        {
            "sharing_profile": "TLP:RED"
        },
        {
            "reference": "Twitter - didn't capture the link at the time"
        },
        {
            "date": "2020-09-21"
        },
        {
            "hash": "80fc8917c91c132e5274319013a4b659e435e8de8abf655cf3482798acb8650a"
        },
        {
            "license": "Found via Twitter - Added by Research-Jon"
        },
        {
            "auto_download": "true"
        },
        {
            "description": "External html frameset, http"
        },
        {
            "md5": "3d5582901aae44f95cd3ce200c5663a8"
        }
    ],
    "strings": [
        {
            "name": "$s1",
            "value": "relationships/frame",
            "type": "text",
            "modifiers": [
                "ascii",
                "wide"
            ]
        },
        {
            "name": "$s2",
            "value": "/TargetMode\\s*=\\s*["\"]External/",
            "type": "regex",
            "modifiers": [
                "ascii",
                "wide"
            ]
        },
        {
            "name": "$s3",
            "value": "/Relationships",
            "type": "text",
            "modifiers": [
                "ascii",
                "wide"
            ]
        },
        {
            "name": "$r1",
            "value": "/Target\\s*=\\s*[\\"\"
        ]http/", "type": "regex", "modifiers": ["ascii", "wide"
    ]
},
{
    "name": "$r2",
    "value": "/Target\\s*=\\s*[\\"\"]\\\\\\\\/",
    "type": "regex",
    "modifiers": [
        "ascii",
        "wide"
    ]
}
],
"rule_name": "external_html_frameset",
"start_line": 1102,
"stop_line": 1128,
"raw_meta": "meta:\n
priority = "high"\n        confidence = 'high'\n        tags = ""\n        threats = 'T1140 Deobfuscate/Decode Files or Information'\n        sandbox_restricted = 'false'\n        threat_type = 'Attack Pattern'\n        rule_version = 'v1'\n        sharing_profile = 'TLP:RED'\n        reference = 'Twitter - didn\'t capture the link at the time'\n        date = '2020-09-21'\n        hash = '80fc8917c91c132e5274319013a4b659e435e8de8abf655cf3482798acb8650a'\n        license = 'Found via Twitter - Added by Research-Jon'\n        auto_download = 'true'\n        description = 'External html frameset, http'\n        md5 = '3d5582901aae44f95cd3ce200c5663a8'\n    ", 
"raw_strings": "strings:\n        $s1 = 'relationships/frame' ascii wide\n        $s2 = /TargetMode\\s*=\\s*[
"\"]External/ ascii wide\n        $s3 = '/Relationships' ascii wide\n        $r1 = /Target\\s*=\\s*[\\"\"
]http/ ascii wide\n\t$r2 = /Target\\s*=\\s*[\\"\"]\\\\\\\\/ ascii wide\n        ",
"raw_condition": "condition:\n        all of ($s*) and (($r1) or ($r2)) and new_file\n",
"condition_terms": [
    "all",
    "of",
    "(",
    "$s*",
    ")",
    "and",
    "(",
    "(",
    "$r1",
    ")",
    "or",
    "(",
    "$r2",
    ")",
    ")",
    "and",
    "new_file"
]
}